<?xml version="1.0" standalone="no"?>
<!DOCTYPE svg PUBLIC "-//W3C//DTD SVG 20010904//EN"
 "http://www.w3.org/TR/2001/REC-SVG-20010904/DTD/svg10.dtd">
<svg version="1.0" xmlns="http://www.w3.org/2000/svg"
 width="260.000000pt" height="260.000000pt" viewBox="0 0 260.000000 260.000000"
 preserveAspectRatio="xMidYMid meet">
<metadata>
Created by potrace 1.14, written by Peter Selinger 2001-2017
</metadata>
<g transform="translate(0.000000,260.000000) scale(0.100000,-0.100000)"
fill="#000000" stroke="none">
<path d="M1166 2560 c-504 -64 -916 -400 -1070 -874 -44 -132 -60 -239 -60
-396 0 -339 115 -632 346 -875 184 -194 409 -321 669 -376 147 -31 371 -31
518 0 510 108 895 502 998 1019 23 116 23 345 0 464 -117 597 -610 1020 -1214
1042 -65 3 -149 1 -187 -4z m795 -649 c20 -16 24 -30 27 -95 l4 -76 115 0
c140 0 172 -13 173 -69 0 -14 -7 -33 -17 -43 -14 -16 -33 -18 -145 -18 l-128
0 0 -139 c0 -167 0 -166 104 -165 53 1 87 8 134 28 70 30 94 28 118 -10 37
-56 -22 -107 -164 -140 -126 -30 -237 -5 -290 64 -26 35 -27 39 -30 199 l-3
163 -41 0 c-25 0 -49 7 -60 17 -18 16 -24 59 -10 79 12 18 49 34 80 34 l30 0
4 81 c3 66 7 83 23 95 26 19 48 18 76 -5z m-1170 -291 c111 -281 118 -295 145
-300 58 -10 72 -100 18 -120 -14 -6 -74 -10 -132 -10 -125 0 -152 11 -152 62
0 43 25 68 68 68 29 0 33 3 27 18 -4 9 -10 25 -12 35 -5 15 -21 17 -144 17
l-139 0 -10 -26 c-15 -39 -13 -44 20 -44 57 0 89 -61 56 -106 -13 -17 -29 -19
-136 -22 -98 -3 -126 -1 -145 12 -46 30 -24 116 30 116 19 0 33 27 112 233
l90 232 -64 5 c-83 6 -111 37 -82 91 17 33 47 38 194 36 l139 -2 117 -295z
m775 105 c24 -14 48 -34 54 -45 39 -72 -38 -131 -104 -79 -36 29 -68 19 -152
-45 l-69 -53 -3 -91 -3 -92 104 0 c112 0 132 -7 142 -52 5 -21 1 -33 -19 -52
l-25 -26 -216 0 c-216 0 -216 0 -240 25 -53 52 -18 105 70 105 l55 0 0 145 0
145 -42 0 c-75 0 -107 66 -52 109 23 18 41 21 125 21 l99 0 0 -36 0 -36 28 18
c104 70 176 81 248 39z m-36 -660 c0 -34 -1 -35 -40 -35 -39 0 -40 1 -40 35 0
34 1 35 40 35 39 0 40 -1 40 -35z m-922 -51 c-2 -52 -7 -69 -21 -78 -15 -9
-21 -7 -33 8 -8 11 -14 30 -14 43 0 22 -4 23 -70 23 l-70 0 0 -40 c0 -36 3
-40 25 -40 15 0 25 6 25 14 0 17 24 28 45 20 11 -5 15 -22 15 -69 0 -70 -17
-98 -45 -75 -8 7 -15 19 -15 26 0 8 -10 14 -25 14 -23 0 -25 -4 -25 -45 l0
-45 38 0 c35 0 62 -14 62 -31 0 -4 -7 -15 -16 -23 -20 -21 -161 -22 -188 -3
-24 18 -17 51 12 55 21 3 22 7 22 122 0 115 -1 119 -22 122 -13 2 -24 11 -26
22 -8 38 23 46 180 46 l149 0 -3 -66z m655 -43 c5 -5 7 -26 5 -47 -4 -47 -29
-57 -60 -24 -16 17 -29 20 -66 18 -63 -4 -66 -25 -5 -34 112 -16 168 -64 143
-123 -22 -54 -89 -73 -204 -58 -61 7 -68 15 -64 63 2 32 7 40 26 42 14 2 29
-5 41 -19 15 -18 28 -23 70 -23 55 0 87 18 61 34 -8 5 -37 12 -65 16 -97 13
-140 54 -116 113 20 47 63 63 151 56 41 -3 79 -10 83 -14z m685 -8 c48 -36 67
-71 67 -123 0 -83 -66 -144 -155 -144 -65 0 -110 28 -139 87 -21 43 -22 53
-12 86 14 50 47 90 85 107 41 19 120 12 154 -13z m342 12 c41 -21 50 -43 50
-128 0 -66 2 -75 20 -80 26 -7 26 -43 1 -57 -46 -24 -121 -5 -121 31 0 12 8
23 20 26 17 5 20 14 20 67 0 70 -10 86 -54 86 -48 0 -66 -24 -66 -92 0 -44 4
-58 14 -58 8 0 18 -10 22 -22 9 -29 -19 -48 -71 -48 -52 0 -80 19 -71 48 4 12
14 22 22 22 11 0 14 16 14 69 0 59 -3 71 -21 83 -16 10 -20 20 -14 36 6 21 12
23 66 21 32 -1 62 1 66 4 12 12 73 7 103 -8z m-1560 -94 c0 -126 14 -140 98
-99 19 10 22 19 22 67 0 54 -1 57 -31 68 -24 9 -30 17 -27 35 3 21 9 23 66 26
l62 3 0 -106 c0 -84 3 -105 14 -105 8 0 18 -10 22 -22 10 -33 -21 -51 -78 -44
-26 3 -62 1 -80 -5 -41 -11 -92 4 -113 34 -10 15 -15 46 -15 98 0 71 -2 76
-25 87 -23 11 -33 40 -18 55 3 4 28 7 55 7 l48 0 0 -99z m810 -6 l0 -105 49 0
c42 0 51 -3 57 -22 12 -38 -18 -48 -141 -48 -119 0 -150 10 -143 46 2 15 13
20 56 22 l52 3 0 70 0 69 -28 0 c-41 0 -66 21 -58 48 7 20 14 22 82 22 l74 0
0 -105z"/>
<path d="M563 1628 l-41 -103 80 -3 c44 -2 82 -1 85 1 4 5 -66 187 -77 200 -3
4 -25 -39 -47 -95z"/>
<path d="M1796 889 c-32 -38 -33 -60 -2 -96 48 -56 156 -22 156 49 0 43 -40
78 -89 78 -32 0 -44 -6 -65 -31z"/>
</g>
</svg>
